1 6.30287
2 3.207994
3 3.959811
4 2.701064
5 2.659135
6 2.039452
7 1.926659
8 1.725546
1 6.296721
2 3.201194
3 3.934339
4 2.653457
5 2.668743
6 2.025103
7 1.93311
8 1.723167
1 6.321806
2 3.202693
3 3.969954
4 2.637731
5 2.626717
6 2.01022
7 1.930171
8 1.637539
1 6.279788
2 3.201068
3 3.932631
4 2.650591
5 2.649613
6 2.032035
7 1.96587
8 1.760433
1 6.327501
2 3.160458
3 3.937498
4 2.673486
5 2.633332
6 2.013608
7 2.097821
8 1.726039
